yasac_tb.vcd
$date
	Mon Apr 21 12:51:09 2025
$end
$version
	Icarus Verilog
$end
$timescale
	1ps
$end
$scope module test $end
$var wire 8 ! port00 [7:0] $end
$var wire 8 " port01 [7:0] $end
$var wire 8 # port02 [7:0] $end
$var wire 8 $ port03 [7:0] $end
$var wire 8 % port04 [7:0] $end
$var wire 8 & port05 [7:0] $end
$var wire 8 ' port06 [7:0] $end
$var wire 8 ( port07 [7:0] $end
$var wire 1 ) ready $end
$var reg 1 * clk $end
$var reg 8 + port08 [7:0] $end
$var reg 8 , port09 [7:0] $end
$var reg 8 - port10 [7:0] $end
$var reg 8 . port11 [7:0] $end
$var reg 8 / port12 [7:0] $end
$var reg 8 0 port13 [7:0] $end
$var reg 8 1 port14 [7:0] $end
$var reg 8 2 port15 [7:0] $end
$var reg 1 3 reset $end
$var reg 1 4 start $end
$scope module uut $end
$var wire 1 5 clk $end
$var wire 1 6 clpc $end
$var wire 1 7 clsb $end
$var wire 1 8 decsp $end
$var wire 1 9 incsp $end
$var wire 1 : inm $end
$var wire 1 ; ipc $end
$var wire 4 < op [3:0] $end
$var wire 5 = opcode [4:0] $end
$var wire 8 > port00 [7:0] $end
$var wire 8 ? port01 [7:0] $end
$var wire 8 @ port02 [7:0] $end
$var wire 8 A port03 [7:0] $end
$var wire 8 B port04 [7:0] $end
$var wire 8 C port05 [7:0] $end
$var wire 8 D port06 [7:0] $end
$var wire 8 E port07 [7:0] $end
$var wire 8 F port08 [7:0] $end
$var wire 8 G port09 [7:0] $end
$var wire 8 H port10 [7:0] $end
$var wire 8 I port11 [7:0] $end
$var wire 8 J port12 [7:0] $end
$var wire 8 K port13 [7:0] $end
$var wire 8 L port14 [7:0] $end
$var wire 8 M port15 [7:0] $end
$var wire 1 N prsp $end
$var wire 1 ) ready $end
$var wire 1 O reset $end
$var wire 1 P rmem $end
$var wire 1 Q rpc $end
$var wire 1 R rsp $end
$var wire 3 S s [2:0] $end
$var wire 1 T sesb $end
$var wire 1 U start $end
$var wire 2 V state_out [1:0] $end
$var wire 8 W status [7:0] $end
$var wire 1 X wir $end
$var wire 1 Y wmar $end
$var wire 1 Z wmem $end
$var wire 1 [ wpc $end
$var wire 1 \ wreg $end
$var wire 1 ] wsreg $end
$scope module control_unit $end
$var wire 1 5 clk $end
$var wire 5 ^ opcode [4:0] $end
$var wire 1 O reset $end
$var wire 3 _ s [2:0] $end
$var wire 1 U start $end
$var wire 2 ` state_out [1:0] $end
$var wire 8 a status [7:0] $end
$var reg 1 b clpc $end
$var reg 1 c clsb $end
$var reg 1 d decsp $end
$var reg 1 e incsp $end
$var reg 1 f inm $end
$var reg 1 g ipc $end
$var reg 3 h next_state [2:0] $end
$var reg 4 i op [3:0] $end
$var reg 1 j prsp $end
$var reg 1 k ready $end
$var reg 1 l rmem $end
$var reg 1 m rpc $end
$var reg 1 n rsp $end
$var reg 1 o sesb $end
$var reg 3 p state [2:0] $end
$var reg 1 q wir $end
$var reg 1 r wmar $end
$var reg 1 s wmem $end
$var reg 1 t wpc $end
$var reg 1 u wreg $end
$var reg 1 v wsreg $end
$upscope $end
$scope module data_unit $end
$var wire 8 w alu_b [7:0] $end
$var wire 8 x alu_out [7:0] $end
$var wire 8 y bus [7:0] $end
$var wire 1 5 clk $end
$var wire 1 6 clpc $end
$var wire 1 7 clsb $end
$var wire 8 z data_out [7:0] $end
$var wire 1 8 decsp $end
$var wire 1 9 incsp $end
$var wire 1 : inm $end
$var wire 16 { inst [15:0] $end
$var wire 1 ; ipc $end
$var wire 8 | k [7:0] $end
$var wire 4 } op [3:0] $end
$var wire 5 ~ opcode [4:0] $end
$var wire 8 !" port00 [7:0] $end
$var wire 8 "" port01 [7:0] $end
$var wire 8 #" port02 [7:0] $end
$var wire 8 $" port03 [7:0] $end
$var wire 8 %" port04 [7:0] $end
$var wire 8 &" port05 [7:0] $end
$var wire 8 '" port06 [7:0] $end
$var wire 8 (" port07 [7:0] $end
$var wire 8 )" port08 [7:0] $end
$var wire 8 *" port09 [7:0] $end
$var wire 8 +" port10 [7:0] $end
$var wire 8 ," port11 [7:0] $end
$var wire 8 -" port12 [7:0] $end
$var wire 8 ." port13 [7:0] $end
$var wire 8 /" port14 [7:0] $end
$var wire 8 0" port15 [7:0] $end
$var wire 1 N prsp $end
$var wire 8 1" rega [7:0] $end
$var wire 8 2" regb [7:0] $end
$var wire 1 P rmem $end
$var wire 1 Q rpc $end
$var wire 1 R rsp $end
$var wire 3 3" s [2:0] $end
$var wire 3 4" sa [2:0] $end
$var wire 3 5" sb [2:0] $end
$var wire 1 T sesb $end
$var wire 8 6" st_out [7:0] $end
$var wire 8 7" status [7:0] $end
$var wire 1 X wir $end
$var wire 1 Y wmar $end
$var wire 1 Z wmem $end
$var wire 1 [ wpc $end
$var wire 1 \ wreg $end
$var wire 1 ] wsreg $end
$var reg 16 8" ir [15:0] $end
$var reg 8 9" mar [7:0] $end
$var reg 8 :" pc [7:0] $end
$var reg 8 ;" sp [7:0] $end
$var reg 8 <" sreg [7:0] $end
$scope module code_mem $end
$var wire 8 =" addr [7:0] $end
$var wire 16 >" data [15:0] $end
$var integer 32 ?" i [31:0] $end
$upscope $end
$scope module data_mem $end
$var wire 8 @" addr [7:0] $end
$var wire 1 5 clk $end
$var wire 8 A" data_in [7:0] $end
$var wire 8 B" data_out [7:0] $end
$var wire 8 C" port00 [7:0] $end
$var wire 8 D" port01 [7:0] $end
$var wire 8 E" port02 [7:0] $end
$var wire 8 F" port03 [7:0] $end
$var wire 8 G" port04 [7:0] $end
$var wire 8 H" port05 [7:0] $end
$var wire 8 I" port06 [7:0] $end
$var wire 8 J" port07 [7:0] $end
$var wire 8 K" port08 [7:0] $end
$var wire 8 L" port09 [7:0] $end
$var wire 8 M" port10 [7:0] $end
$var wire 8 N" port11 [7:0] $end
$var wire 8 O" port12 [7:0] $end
$var wire 8 P" port13 [7:0] $end
$var wire 8 Q" port14 [7:0] $end
$var wire 8 R" port15 [7:0] $end
$var wire 1 Z wmem $end
$var reg 8 S" port_out [7:0] $end
$var reg 8 T" port_reg00 [7:0] $end
$var reg 8 U" port_reg01 [7:0] $end
$var reg 8 V" port_reg02 [7:0] $end
$var reg 8 W" port_reg03 [7:0] $end
$var reg 8 X" port_reg04 [7:0] $end
$var reg 8 Y" port_reg05 [7:0] $end
$var reg 8 Z" port_reg06 [7:0] $end
$var reg 8 [" port_reg07 [7:0] $end
$var reg 8 \" port_reg08 [7:0] $end
$var reg 8 ]" port_reg09 [7:0] $end
$var reg 8 ^" port_reg10 [7:0] $end
$var reg 8 _" port_reg11 [7:0] $end
$var reg 8 `" port_reg12 [7:0] $end
$var reg 8 a" port_reg13 [7:0] $end
$var reg 8 b" port_reg14 [7:0] $end
$var reg 8 c" port_reg15 [7:0] $end
$scope begin mem_init $end
$var integer 32 d" i [31:0] $end
$upscope $end
$upscope $end
$scope module alu $end
$var wire 8 e" a [7:0] $end
$var wire 8 f" b [7:0] $end
$var wire 4 g" op [3:0] $end
$var wire 8 h" st_in [7:0] $end
$var reg 8 i" r [7:0] $end
$var reg 8 j" st_out [7:0] $end
$upscope $end
$upscope $end
$upscope $end
$upscope $end
$enddefinitions $end
#0
$dumpvars
bx j"
bx i"
bx h"
b0 g"
bx f"
bx e"
b11110000 d"
b0 c"
b0 b"
b0 a"
b0 `"
b0 _"
b0 ^"
b0 ]"
b0 \"
b0 ["
b0 Z"
b0 Y"
b0 X"
b0 W"
b0 V"
b0 U"
b0 T"
bx S"
bx R"
bx Q"
bx P"
bx O"
bx N"
bx M"
b0 L"
bx K"
b0 J"
b0 I"
b0 H"
b0 G"
b0 F"
b0 E"
b0 D"
b0 C"
bx B"
bx A"
bx @"
b100000000 ?"
bx >"
bx ="
bx <"
bx ;"
bx :"
bx 9"
bx 8"
bx 7"
bx 6"
bx 5"
bx 4"
bx 3"
bx 2"
bx 1"
bx 0"
bx /"
bx ."
bx -"
bx ,"
bx +"
b0 *"
bx )"
b0 ("
b0 '"
b0 &"
b0 %"
b0 $"
b0 #"
b0 ""
b0 !"
bx ~
b0 }
bx |
bx {
bx z
bx y
bx x
bx w
0v
0u
0t
0s
0r
0q
bx p
0o
0n
0m
0l
0k
0j
b0 i
bx h
0g
0f
0e
0d
0c
0b
bx a
bx `
bx _
bx ^
0]
0\
0[
0Z
0Y
0X
bx W
bx V
0U
0T
bx S
0R
0Q
0P
0O
0N
bx M
bx L
bx K
bx J
bx I
bx H
b0 G
bx F
b0 E
b0 D
b0 C
b0 B
b0 A
b0 @
b0 ?
b0 >
bx =
b0 <
0;
0:
09
08
07
06
05
04
03
bx 2
bx 1
bx 0
bx /
bx .
bx -
b0 ,
bx +
0*
0)
b0 (
b0 '
b0 &
b0 %
b0 $
b0 #
b0 "
b0 !
$end
#10000
bx c"
bx b"
bx a"
bx `"
bx _"
bx ^"
bx \"
1*
15
#11000
13
1O
#20000
0*
05
#30000
1k
1)
b0 h
b0 V
b0 `
b0 p
1*
15
#31000
03
0O
#40000
0*
05
#50000
1*
15
#60000
0*
05
#70000
1*
15
#80000
0*
05
#90000
1*
15
#91000
1j
1N
1b
16
1k
1)
b1 h
14
1U
#100000
0*
05
#110000
1g
1;
1q
1X
0j
0N
0b
06
0k
0)
b10 h
b1 V
b1 `
b11101111 ;"
b0 :"
b0 ="
b100000000001 {
b100000000001 >"
b1 p
1*
15
#111000
1q
1X
1g
1;
b10 h
04
0U
#120000
0*
05
#130000
b1 y
b1 A"
b1 i"
b1 x
b1 w
b1 f"
1f
1:
1u
1\
b11 i
b11 <
b11 }
b11 g"
0q
0X
0g
0;
b1 h
b10 V
b10 `
b1 =
b1 ^
b1 ~
b0 4"
b1 5"
b1 |
b0 S
b0 _
b0 3"
b10 p
b1 :"
b1 ="
b101100000001 {
b101100000001 >"
b100000000001 8"
1*
15
#140000
0*
05
#150000
bx y
bx A"
bx w
bx f"
bx j"
bx 6"
bx i"
bx x
1g
1;
1q
1X
0f
0:
0u
0\
b0 i
b0 <
b0 }
b0 g"
b10 h
b1 V
b1 `
b1 1"
b1 e"
b1 p
1*
15
#160000
0*
05
#170000
b1 y
b1 A"
b1 i"
b1 x
b1 w
b1 f"
1f
1:
1u
1\
b11 i
b11 <
b11 }
b11 g"
0q
0X
0g
0;
b1 h
b10 V
b10 `
bx 1"
bx e"
b11 4"
b11 S
b11 _
b11 3"
b10 p
b10 :"
b10 ="
b110010000000 {
b110010000000 >"
b101100000001 8"
1*
15
#180000
0*
05
#190000
bx y
bx A"
bx w
bx f"
bx j"
bx 6"
bx i"
bx x
1g
1;
1q
1X
0f
0:
0u
0\
b0 i
b0 <
b0 }
b0 g"
b10 h
b1 V
b1 `
b1 1"
b1 e"
b1 p
1*
15
#200000
0*
05
#210000
b10000000 y
b10000000 A"
b10000000 i"
b10000000 x
b10000000 w
b10000000 f"
1f
1:
1u
1\
b11 i
b11 <
b11 }
b11 g"
0q
0X
0g
0;
b1 h
b10 V
b10 `
bx 1"
bx e"
b100 4"
b1 2"
b0 5"
b10000000 |
b100 S
b100 _
b100 3"
b10 p
b11 :"
b11 ="
b110100000001 {
b110100000001 >"
b110010000000 8"
1*
15
#220000
0*
05
#230000
b10000001 y
b10000001 A"
b1 w
b1 f"
bx10100 j"
bx10100 6"
b10000001 i"
b10000001 x
1g
1;
1q
1X
0f
0:
0u
0\
b0 i
b0 <
b0 }
b0 g"
b10 h
b1 V
b1 `
b10000000 1"
b10000000 e"
b1 p
1*
15
#240000
0*
05
#250000
b1 y
b1 A"
b1 i"
b1 x
bx j"
bx 6"
1f
1:
1u
1\
b11 i
b11 <
b11 }
b11 g"
0q
0X
0g
0;
b1 h
b10 V
b10 `
bx 1"
bx e"
b101 4"
bx 2"
b1 5"
b1 |
b101 S
b101 _
b101 3"
b10 p
b100 :"
b100 ="
b100100011110000 {
b100100011110000 >"
b110100000001 8"
1*
15
#260000
0*
05
#270000
bx y
bx A"
bx w
bx f"
bx j"
bx 6"
bx i"
bx x
1g
1;
1q
1X
0f
0:
0u
0\
b0 i
b0 <
b0 }
b0 g"
b10 h
b1 V
b1 `
b1 1"
b1 e"
b1 p
1*
15
#280000
0*
05
#290000
b11110000 y
b11110000 A"
b11110000 i"
b11110000 x
b11110000 w
b11110000 f"
1f
1:
1r
1Y
b11 i
b11 <
b11 }
b11 g"
0q
0X
0g
0;
b11 h
b10 V
b10 `
b1001 =
b1001 ^
b1001 ~
b0 4"
b1 2"
b0 5"
b11110000 |
b0 S
b0 _
b0 3"
b10 p
b101 :"
b101 ="
b101000001010 {
b101000001010 >"
b100100011110000 8"
1*
15
#300000
0*
05
#310000
b1 y
b1 A"
b0 z
b0 B"
b1 w
b1 f"
b1 i"
b1 x
b0 S"
1s
1Z
0r
0Y
0f
0:
b1 i
b1 <
b1 }
b1 g"
b1 h
b11 V
b11 `
b11110000 9"
b11110000 @"
b11 p
1*
15
#320000
0*
05
#330000
b10 y
b10 A"
bx00000 j"
bx00000 6"
b10 i"
b10 x
b1 z
b1 B"
1g
1;
1q
1X
0s
0Z
b0 i
b0 <
b0 }
b0 g"
b10 h
b1 V
b1 `
b1 S"
b1 p
b1 T"
b1 !
b1 >
b1 !"
b1 C"
1*
15
#340000
0*
05
#350000
b1010 y
b1010 A"
1u
1\
b1010 w
b1010 f"
b1010 i"
b1010 x
bx j"
bx 6"
b1 =
b1 ^
b1 ~
bx 1"
bx e"
b10 4"
bx 2"
b10 5"
b1010 |
b10 S
b10 _
b10 3"
1f
1:
0r
0Y
b11 i
b11 <
b11 }
b11 g"
0q
0X
0g
0;
b1 h
b10 V
b10 `
b101000001010 8"
b110 :"
b110 ="
b0 {
b0 >"
b10 p
1*
15
#360000
0*
05
#370000
b10100 y
b10100 A"
bx00000 j"
bx00000 6"
b10100 i"
b10100 x
1g
1;
1q
1X
0f
0:
0u
0\
b0 i
b0 <
b0 }
b0 g"
b10 h
b1 V
b1 `
b1 p
b1010 1"
b1010 e"
b1010 2"
1*
15
#380000
0*
05
#390000
b10 y
b10 A"
b1 w
b1 f"
b10 i"
b10 x
bx00000 j"
bx00000 6"
b0 =
b0 ^
b0 ~
b1 1"
b1 e"
b0 4"
b1 2"
b0 5"
b0 |
b0 S
b0 _
b0 3"
0f
0:
0u
0\
b0 i
b0 <
b0 }
b0 g"
0q
0X
0g
0;
b1 h
b10 V
b10 `
b0 8"
b111 :"
b111 ="
b1100101000000001 {
b1100101000000001 >"
b10 p
1*
15
#400000
0*
05
#410000
1g
1;
1q
1X
b10 h
b1 V
b1 `
b1 p
1*
15
#420000
0*
05
#430000
b1001 y
b1001 A"
b1001 i"
b1001 x
bx00000 j"
bx00000 6"
1v
1]
1u
1\
1f
1:
b10 i
b10 <
b10 }
b10 g"
b11001 =
b11001 ^
b11001 ~
b1010 1"
b1010 e"
b10 4"
bx 2"
b1 5"
b1 |
b10 S
b10 _
b10 3"
0q
0X
0g
0;
b1 h
b10 V
b10 `
b1100101000000001 8"
b1000 :"
b1000 ="
b1101101000000000 {
b1101101000000000 >"
b10 p
1*
15
#440000
0*
05
#450000
bx y
bx A"
bx 6"
bx w
bx f"
b10 h
b1 V
b1 `
bx j"
bx i"
bx x
1g
1;
1q
1X
0v
0]
0f
0:
0u
0\
b0 i
b0 <
b0 }
b0 g"
b1 p
b1001 1"
b1001 e"
bx00000 <"
bx00000 h"
bx00000 W
bx00000 a
bx00000 7"
1*
15
#460000
0*
05
#470000
b1001 y
b1001 A"
b1001 i"
b1001 x
b0 w
b0 f"
bx00000 j"
bx00000 6"
b11011 =
b11011 ^
b11011 ~
b1 2"
b0 5"
b0 |
1v
1]
0u
0\
1f
1:
b10 i
b10 <
b10 }
b10 g"
0q
0X
0g
0;
b1 h
b10 V
b10 `
b1101101000000000 8"
b1001 :"
b1001 ="
b110000100000110 {
b110000100000110 >"
b10 p
1*
15
#480000
0*
05
#490000
b1010 y
b1010 A"
b1010 i"
b1010 x
b1 w
b1 f"
bx00000 j"
1g
1;
1q
1X
0v
0]
0f
0:
b0 i
b0 <
b0 }
b0 g"
b10 h
b1 V
b1 `
b1 p
1*
15
#500000
0*
05
#510000
b110 y
b110 A"
1t
1[
b110 w
b110 f"
bx00000 j"
bx00000 6"
b110 i"
b110 x
b1100 =
b1100 ^
b1100 ~
bx 1"
bx e"
b1 4"
bx 2"
b110 5"
b110 |
b1 S
b1 _
b1 3"
0v
0]
1f
1:
b11 i
b11 <
b11 }
b11 g"
0q
0X
0g
0;
b1 h
b10 V
b10 `
b110000100000110 8"
b1010 :"
b1010 ="
b100000111111001 {
b100000111111001 >"
b10 p
1*
15
#520000
0*
05
#530000
bx y
bx A"
bx w
bx f"
bx j"
bx 6"
bx i"
bx x
1g
1;
1q
1X
0f
0:
0t
0[
b0 i
b0 <
b0 }
b0 g"
b10 h
b1 V
b1 `
b1 p
b110 :"
b110 ="
b0 {
b0 >"
1*
15
#540000
0*
05
#550000
b10 y
b10 A"
b10 i"
b10 x
b1 w
b1 f"
bx00000 j"
bx00000 6"
b0 =
b0 ^
b0 ~
b1 1"
b1 e"
b0 4"
b1 2"
b0 5"
b0 |
b0 S
b0 _
b0 3"
0t
0[
0f
0:
b0 i
b0 <
b0 }
b0 g"
0q
0X
0g
0;
b1 h
b10 V
b10 `
b0 8"
b111 :"
b111 ="
b1100101000000001 {
b1100101000000001 >"
b10 p
1*
15
#560000
0*
05
#570000
1g
1;
1q
1X
b10 h
b1 V
b1 `
b1 p
1*
15
#580000
0*
05
#590000
b1000 y
b1000 A"
bx00000 j"
b1000 i"
b1000 x
1v
1]
1u
1\
1f
1:
b10 i
b10 <
b10 }
b10 g"
b11001 =
b11001 ^
b11001 ~
b1001 1"
b1001 e"
b10 4"
bx 2"
b1 5"
b1 |
b10 S
b10 _
b10 3"
0q
0X
0g
0;
b1 h
b10 V
b10 `
b1100101000000001 8"
b1000 :"
b1000 ="
b1101101000000000 {
b1101101000000000 >"
b10 p
1*
15
#600000
0*
05
#610000
bx y
bx A"
bx 6"
bx w
bx f"
1g
1;
1q
1X
0v
0]
0f
0:
0u
0\
b0 i
b0 <
b0 }
b0 g"
b10 h
b1 V
b1 `
bx j"
bx i"
bx x
b1 p
b1000 1"
b1000 e"
1*
15
#620000
0*
05
#630000
b1000 y
b1000 A"
b1000 i"
b1000 x
b0 w
b0 f"
bx00000 j"
bx00000 6"
b11011 =
b11011 ^
b11011 ~
b1 2"
b0 5"
b0 |
1v
1]
0u
0\
1f
1:
b10 i
b10 <
b10 }
b10 g"
0q
0X
0g
0;
b1 h
b10 V
b10 `
b1101101000000000 8"
b1001 :"
b1001 ="
b110000100000110 {
b110000100000110 >"
b10 p
1*
15
#640000
0*
05
#650000
b1001 y
b1001 A"
b1001 i"
b1001 x
b1 w
b1 f"
bx00000 j"
1g
1;
1q
1X
0v
0]
0f
0:
b0 i
b0 <
b0 }
b0 g"
b10 h
b1 V
b1 `
b1 p
1*
15
#660000
0*
05
#670000
b110 y
b110 A"
1t
1[
b110 w
b110 f"
bx00000 j"
bx00000 6"
b110 i"
b110 x
b1100 =
b1100 ^
b1100 ~
bx 1"
bx e"
b1 4"
bx 2"
b110 5"
b110 |
b1 S
b1 _
b1 3"
0v
0]
1f
1:
b11 i
b11 <
b11 }
b11 g"
0q
0X
0g
0;
b1 h
b10 V
b10 `
b110000100000110 8"
b1010 :"
b1010 ="
b100000111111001 {
b100000111111001 >"
b10 p
1*
15
#680000
0*
05
#690000
bx y
bx A"
bx w
bx f"
bx j"
bx 6"
bx i"
bx x
1g
1;
1q
1X
0f
0:
0t
0[
b0 i
b0 <
b0 }
b0 g"
b10 h
b1 V
b1 `
b1 p
b110 :"
b110 ="
b0 {
b0 >"
1*
15
#700000
0*
05
#710000
b10 y
b10 A"
b10 i"
b10 x
b1 w
b1 f"
bx00000 j"
bx00000 6"
b0 =
b0 ^
b0 ~
b1 1"
b1 e"
b0 4"
b1 2"
b0 5"
b0 |
b0 S
b0 _
b0 3"
0t
0[
0f
0:
b0 i
b0 <
b0 }
b0 g"
0q
0X
0g
0;
b1 h
b10 V
b10 `
b0 8"
b111 :"
b111 ="
b1100101000000001 {
b1100101000000001 >"
b10 p
1*
15
#720000
0*
05
#730000
1g
1;
1q
1X
b10 h
b1 V
b1 `
b1 p
1*
15
#740000
0*
05
#750000
b111 y
b111 A"
bx00000 j"
b111 i"
b111 x
1v
1]
1u
1\
1f
1:
b10 i
b10 <
b10 }
b10 g"
b11001 =
b11001 ^
b11001 ~
b1000 1"
b1000 e"
b10 4"
bx 2"
b1 5"
b1 |
b10 S
b10 _
b10 3"
0q
0X
0g
0;
b1 h
b10 V
b10 `
b1100101000000001 8"
b1000 :"
b1000 ="
b1101101000000000 {
b1101101000000000 >"
b10 p
1*
15
#760000
0*
05
#770000
bx y
bx A"
bx 6"
bx w
bx f"
1g
1;
1q
1X
0v
0]
0f
0:
0u
0\
b0 i
b0 <
b0 }
b0 g"
b10 h
b1 V
b1 `
bx j"
bx i"
bx x
b1 p
b111 1"
b111 e"
1*
15
#780000
0*
05
#790000
b111 y
b111 A"
b111 i"
b111 x
b0 w
b0 f"
bx00000 j"
bx00000 6"
b11011 =
b11011 ^
b11011 ~
b1 2"
b0 5"
b0 |
1v
1]
0u
0\
1f
1:
b10 i
b10 <
b10 }
b10 g"
0q
0X
0g
0;
b1 h
b10 V
b10 `
b1101101000000000 8"
b1001 :"
b1001 ="
b110000100000110 {
b110000100000110 >"
b10 p
1*
15
#800000
0*
05
#810000
b1000 y
b1000 A"
b1000 i"
b1000 x
b1 w
b1 f"
bx00000 j"
1g
1;
1q
1X
0v
0]
0f
0:
b0 i
b0 <
b0 }
b0 g"
b10 h
b1 V
b1 `
b1 p
1*
15
#820000
0*
05
#830000
b110 y
b110 A"
1t
1[
b110 w
b110 f"
bx00000 j"
bx00000 6"
b110 i"
b110 x
b1100 =
b1100 ^
b1100 ~
bx 1"
bx e"
b1 4"
bx 2"
b110 5"
b110 |
b1 S
b1 _
b1 3"
0v
0]
1f
1:
b11 i
b11 <
b11 }
b11 g"
0q
0X
0g
0;
b1 h
b10 V
b10 `
b110000100000110 8"
b1010 :"
b1010 ="
b100000111111001 {
b100000111111001 >"
b10 p
1*
15
#840000
0*
05
#850000
bx y
bx A"
bx w
bx f"
bx j"
bx 6"
bx i"
bx x
1g
1;
1q
1X
0f
0:
0t
0[
b0 i
b0 <
b0 }
b0 g"
b10 h
b1 V
b1 `
b1 p
b110 :"
b110 ="
b0 {
b0 >"
1*
15
#860000
0*
05
#870000
b10 y
b10 A"
b10 i"
b10 x
b1 w
b1 f"
bx00000 j"
bx00000 6"
b0 =
b0 ^
b0 ~
b1 1"
b1 e"
b0 4"
b1 2"
b0 5"
b0 |
b0 S
b0 _
b0 3"
0t
0[
0f
0:
b0 i
b0 <
b0 }
b0 g"
0q
0X
0g
0;
b1 h
b10 V
b10 `
b0 8"
b111 :"
b111 ="
b1100101000000001 {
b1100101000000001 >"
b10 p
1*
15
#880000
0*
05
#890000
1g
1;
1q
1X
b10 h
b1 V
b1 `
b1 p
1*
15
#900000
0*
05
#910000
b110 y
b110 A"
bx00000 j"
b110 i"
b110 x
1v
1]
1u
1\
1f
1:
b10 i
b10 <
b10 }
b10 g"
b11001 =
b11001 ^
b11001 ~
b111 1"
b111 e"
b10 4"
bx 2"
b1 5"
b1 |
b10 S
b10 _
b10 3"
0q
0X
0g
0;
b1 h
b10 V
b10 `
b1100101000000001 8"
b1000 :"
b1000 ="
b1101101000000000 {
b1101101000000000 >"
b10 p
1*
15
#920000
0*
05
#930000
bx y
bx A"
bx 6"
bx w
bx f"
1g
1;
1q
1X
0v
0]
0f
0:
0u
0\
b0 i
b0 <
b0 }
b0 g"
b10 h
b1 V
b1 `
bx j"
bx i"
bx x
b1 p
b110 1"
b110 e"
1*
15
#940000
0*
05
#950000
b110 y
b110 A"
b110 i"
b110 x
b0 w
b0 f"
bx00000 j"
bx00000 6"
b11011 =
b11011 ^
b11011 ~
b1 2"
b0 5"
b0 |
1v
1]
0u
0\
1f
1:
b10 i
b10 <
b10 }
b10 g"
0q
0X
0g
0;
b1 h
b10 V
b10 `
b1101101000000000 8"
b1001 :"
b1001 ="
b110000100000110 {
b110000100000110 >"
b10 p
1*
15
#960000
0*
05
#970000
b111 y
b111 A"
b111 i"
b111 x
b1 w
b1 f"
bx00000 j"
1g
1;
1q
1X
0v
0]
0f
0:
b0 i
b0 <
b0 }
b0 g"
b10 h
b1 V
b1 `
b1 p
1*
15
#980000
0*
05
#990000
b110 y
b110 A"
1t
1[
b110 w
b110 f"
bx00000 j"
bx00000 6"
b110 i"
b110 x
b1100 =
b1100 ^
b1100 ~
bx 1"
bx e"
b1 4"
bx 2"
b110 5"
b110 |
b1 S
b1 _
b1 3"
0v
0]
1f
1:
b11 i
b11 <
b11 }
b11 g"
0q
0X
0g
0;
b1 h
b10 V
b10 `
b110000100000110 8"
b1010 :"
b1010 ="
b100000111111001 {
b100000111111001 >"
b10 p
1*
15
#1000000
0*
05
#1010000
bx y
bx A"
bx w
bx f"
bx j"
bx 6"
bx i"
bx x
1g
1;
1q
1X
0f
0:
0t
0[
b0 i
b0 <
b0 }
b0 g"
b10 h
b1 V
b1 `
b1 p
b110 :"
b110 ="
b0 {
b0 >"
1*
15
#1020000
0*
05
#1030000
b10 y
b10 A"
b10 i"
b10 x
b1 w
b1 f"
bx00000 j"
bx00000 6"
b0 =
b0 ^
b0 ~
b1 1"
b1 e"
b0 4"
b1 2"
b0 5"
b0 |
b0 S
b0 _
b0 3"
0t
0[
0f
0:
b0 i
b0 <
b0 }
b0 g"
0q
0X
0g
0;
b1 h
b10 V
b10 `
b0 8"
b111 :"
b111 ="
b1100101000000001 {
b1100101000000001 >"
b10 p
1*
15
#1040000
0*
05
#1050000
1g
1;
1q
1X
b10 h
b1 V
b1 `
b1 p
1*
15
#1060000
0*
05
#1070000
b101 y
b101 A"
bx00000 j"
b101 i"
b101 x
1v
1]
1u
1\
1f
1:
b10 i
b10 <
b10 }
b10 g"
b11001 =
b11001 ^
b11001 ~
b110 1"
b110 e"
b10 4"
bx 2"
b1 5"
b1 |
b10 S
b10 _
b10 3"
0q
0X
0g
0;
b1 h
b10 V
b10 `
b1100101000000001 8"
b1000 :"
b1000 ="
b1101101000000000 {
b1101101000000000 >"
b10 p
1*
15
#1080000
0*
05
#1090000
bx y
bx A"
bx 6"
bx w
bx f"
1g
1;
1q
1X
0v
0]
0f
0:
0u
0\
b0 i
b0 <
b0 }
b0 g"
b10 h
b1 V
b1 `
bx j"
bx i"
bx x
b1 p
b101 1"
b101 e"
1*
15
#1100000
0*
05
#1110000
b101 y
b101 A"
b101 i"
b101 x
b0 w
b0 f"
bx00000 j"
bx00000 6"
b11011 =
b11011 ^
b11011 ~
b1 2"
b0 5"
b0 |
1v
1]
0u
0\
1f
1:
b10 i
b10 <
b10 }
b10 g"
0q
0X
0g
0;
b1 h
b10 V
b10 `
b1101101000000000 8"
b1001 :"
b1001 ="
b110000100000110 {
b110000100000110 >"
b10 p
1*
15
#1120000
0*
05
#1130000
b110 y
b110 A"
b110 i"
b110 x
b1 w
b1 f"
bx00000 j"
1g
1;
1q
1X
0v
0]
0f
0:
b0 i
b0 <
b0 }
b0 g"
b10 h
b1 V
b1 `
b1 p
1*
15
#1140000
0*
05
#1150000
b110 y
b110 A"
1t
1[
b110 w
b110 f"
bx00000 j"
bx00000 6"
b110 i"
b110 x
b1100 =
b1100 ^
b1100 ~
bx 1"
bx e"
b1 4"
bx 2"
b110 5"
b110 |
b1 S
b1 _
b1 3"
0v
0]
1f
1:
b11 i
b11 <
b11 }
b11 g"
0q
0X
0g
0;
b1 h
b10 V
b10 `
b110000100000110 8"
b1010 :"
b1010 ="
b100000111111001 {
b100000111111001 >"
b10 p
1*
15
#1160000
0*
05
#1170000
bx y
bx A"
bx w
bx f"
bx j"
bx 6"
bx i"
bx x
1g
1;
1q
1X
0f
0:
0t
0[
b0 i
b0 <
b0 }
b0 g"
b10 h
b1 V
b1 `
b1 p
b110 :"
b110 ="
b0 {
b0 >"
1*
15
#1180000
0*
05
#1190000
b10 y
b10 A"
b10 i"
b10 x
b1 w
b1 f"
bx00000 j"
bx00000 6"
b0 =
b0 ^
b0 ~
b1 1"
b1 e"
b0 4"
b1 2"
b0 5"
b0 |
b0 S
b0 _
b0 3"
0t
0[
0f
0:
b0 i
b0 <
b0 }
b0 g"
0q
0X
0g
0;
b1 h
b10 V
b10 `
b0 8"
b111 :"
b111 ="
b1100101000000001 {
b1100101000000001 >"
b10 p
1*
15
#1200000
0*
05
#1210000
1g
1;
1q
1X
b10 h
b1 V
b1 `
b1 p
1*
15
#1220000
0*
05
#1230000
b100 y
b100 A"
bx00000 j"
b100 i"
b100 x
1v
1]
1u
1\
1f
1:
b10 i
b10 <
b10 }
b10 g"
b11001 =
b11001 ^
b11001 ~
b101 1"
b101 e"
b10 4"
bx 2"
b1 5"
b1 |
b10 S
b10 _
b10 3"
0q
0X
0g
0;
b1 h
b10 V
b10 `
b1100101000000001 8"
b1000 :"
b1000 ="
b1101101000000000 {
b1101101000000000 >"
b10 p
1*
15
#1240000
0*
05
#1250000
bx y
bx A"
bx 6"
bx w
bx f"
1g
1;
1q
1X
0v
0]
0f
0:
0u
0\
b0 i
b0 <
b0 }
b0 g"
b10 h
b1 V
b1 `
bx j"
bx i"
bx x
b1 p
b100 1"
b100 e"
1*
15
#1260000
0*
05
